WeightClassKg,Sex,Division,Name,JapaneseName,BirthYear,BodyweightKg,Squat1Kg,Squat2Kg,Squat3Kg,Bench1Kg,Bench2Kg,Bench3Kg,Deadlift1Kg,Deadlift2Kg,Deadlift3Kg,Best3SquatKg,Best3BenchKg,Best3DeadliftKg,TotalKg,Team,Event,Equipment,Place
43,F,Sub-Juniors,,浜田 華澄,2000,41.7,80,-90,-90,55,62.5,-70.5,100,105,107.5,80,62.5,107.5,250,厚木商業高校,SBD,Single-ply,1
52,F,Sub-Juniors,,田ケ谷 花恋,2001,50.4,95,100,105,45,50,55,-95,100,110,105,55,110,270,東京成徳大学深谷高等学校,SBD,Single-ply,1
57,F,Sub-Juniors,,森角 春陽,2003,54.1,-85,-95,95,40,45,47.5,85,95,-100,95,47.5,95,237.5,パワーハウスかみかわ,SBD,Single-ply,1
63,F,Sub-Juniors,,藤原 志帆,2002,62.25,100,107.5,112.5,47.5,52.5,-57.5,120,132.5,-143,112.5,52.5,132.5,297.5,国士館中学校■高等学校,SBD,Single-ply,1
53,M,Sub-Juniors,,松崎 涼,1999,52.3,120,140,-160,90,100,-110,120,140,160,140,100,160,400,浦和学院高等学校,SBD,Single-ply,1
59,M,Sub-Juniors,Yo Tamura,田村 陽,1999,59,200,210,220,-180,180,-200.5,200,210,-220.5,220,180,210,610,厚木商業高校,SBD,Single-ply,1
59,M,Sub-Juniors,,土屋 潤人,2000,55.55,170,-180,-180,110,-120,120,165,-175,-190,170,120,165,455,岡崎城西高校,SBD,Single-ply,2
59,M,Sub-Juniors,,濱砂 水喜,2000,57.7,150,160,-175,100,112.5,-125,150,160,-170,160,112.5,160,432.5,春日部共栄高等学校,SBD,Single-ply,3
66,M,Sub-Juniors,,安井 力斗,1999,64,190,200,-215,90,95,-100,165,175,-190,200,95,175,470,関西福祉大学金光藤蔭高等学校,SBD,Single-ply,1
66,M,Sub-Juniors,,村井 海仁,2000,65.15,140,150,157.5,85,95,100,150,155,-160,157.5,100,155,412.5,関西福祉大学金光藤蔭高等学校,SBD,Single-ply,2
66,M,Sub-Juniors,,天野 克哉,1999,64.25,-145,145,-150,80,-90,-90,165,170,-175,145,80,170,395,東京成徳大学深谷高等学校,SBD,Single-ply,3
74,M,Sub-Juniors,,林 海渡,1999,74,170,190,200,120,130,-135,140,160,170,200,130,170,500,春日部共栄高等学校,SBD,Single-ply,1
74,M,Sub-Juniors,,鈴木 聖也,2000,72.3,150,160,-172.5,105,112.5,120,165,175,-185,160,120,175,455,浦和学院高等学校,SBD,Single-ply,2
83,M,Sub-Juniors,,富田 慎之介,2001,81.85,190,200,210,-150,-150,150,180,195,205,210,150,205,565,浦和学院高等学校,SBD,Single-ply,1
83,M,Sub-Juniors,,井上 修斗,1999,79.2,170,180,195,130,140,-145,160,170,185,195,140,185,520,関西福祉大学金光藤蔭高等学校,SBD,Single-ply,2
83,M,Sub-Juniors,,新井 凌,1999,82,-190,190,-195,105,-110,110,205,220,-225,190,110,220,520,東京成徳大学深谷高等学校,SBD,Single-ply,3
83,M,Sub-Juniors,,前所 佑汰,1999,79.75,160,175,185,125,130,-137.5,180,192.5,-207.5,185,130,192.5,507.5,関西福祉大学金光藤蔭高等学校,SBD,Single-ply,4
93,M,Sub-Juniors,Hideki Da Silva,シルバ 英樹,1999,86,160,235,247.5,90,142.5,-150,280,-290,-300,247.5,142.5,280,670,個人,SBD,Single-ply,1
93,M,Sub-Juniors,,河村 拓海,1999,91.95,190,200,210,100,110,120,195,215,-220,210,120,215,545,東京成徳大学深谷高等学校,SBD,Single-ply,2
105,M,Sub-Juniors,,山田 将弘,1999,98.9,190,-215,215,-145,145,-150,185,200,205,215,145,205,565,浦和学院高等学校,SBD,Single-ply,1
47,F,Juniors,Kotomi Hayakawa,早川 琴果,1995,46.75,117.5,127.5,132.5,85,87.5,-90,130,135,145.5,132.5,87.5,145.5,365.5,阪南大学体育会ウェイ卜卜レーニング部,SBD,Single-ply,1
47,F,Juniors,,菊地 雅,1998,46.75,125,130,135,80,85,-87.5,120,130,-137.5,135,85,130,350,TXP,SBD,Single-ply,2
47,F,Juniors,,植村 茉由,1997,46.65,90,100,107.5,50,55,60,95,105,110,107.5,60,110,277.5,青山学院大学,SBD,Single-ply,3
52,F,Juniors,Aoi Sawayama,澤山 あおい,1998,50.6,135,145,152.5,65,70,75,110,120,127.5,152.5,75,127.5,355,パワーハウス,SBD,Single-ply,1
57,F,Juniors,Ruri Fujinami,藤浪 瑠璃,1994,56.45,145,-150,150,80,-85,85,130,140,145.5,150,85,145.5,380.5,パワ一ハウス,SBD,Single-ply,1
57,F,Juniors,,来栖 彩,1998,56.75,120,-132.5,-135,40,-67.5,-67.5,110,127.5,140,120,40,140,300,青山学院大学,SBD,Single-ply,2
63,F,Juniors,Nobuyo Kobayashi,小林 展代,1997,59.45,155,165,170,-90,90,92.5,120,130,-135,170,92.5,130,392.5,TXP,SBD,Single-ply,1
53,M,Juniors,,森脇 滉人,1995,52.8,185,-195,-195,105,112.5,117.5,180,196,200.5,185,117.5,200.5,503,個人,SBD,Single-ply,1
53,M,Juniors,,新井 一真,1995,52.45,150,-170,180,60,105,112.5,160,180,-210.5,180,112.5,180,472.5,農友会ボディビル■パワーリフティング部,SBD,Single-ply,2
59,M,Juniors,Yusuke Satake,佐竹 優典,1996,58.8,230,242.5,250,145,160,165,220,235,245.5,250,165,245.5,660.5,青山学院大学,SBD,Single-ply,1
59,M,Juniors,,河野彰吾,1996,58.3,205,212.5,217.5,107.5,112.5,117.5,197.5,-207.5,-207.5,217.5,117.5,197.5,532.5,学習院大学ウェイ卜卜レーニング部,SBD,Single-ply,2
59,M,Juniors,,ファルキアブドウルアズィーズ,1998,57.6,190,-205,-205,120,-125,-125,185,200,-222.5,190,120,200,510,靑山学院大学,SBD,Single-ply,3
66,M,Juniors,Yosuke Kiuchi,木内 陽介,1996,65.55,250,262.5,267.5,150,165,-170,250,270,277.5,267.5,165,277.5,710,青山学院大学,SBD,Single-ply,1
66,M,Juniors,,東 真彦,1995,65.95,-210,210,220,150,-160,160,200,210,-215,220,160,210,590,慶応義塾大学,SBD,Single-ply,2
66,M,Juniors,,溝内 剛,1995,65.9,195,205,210,130,140,-145,200,205,-207.5,210,140,205,555,岡山大学ウェイ卜卜レ一ニング部,SBD,Single-ply,3
74,M,Juniors,Hiroshi Ishikawa,石川 裕士,1997,73.4,225,235,242.5,175,185,190,205,215,225,242.5,190,225,657.5,青山学院大学,SBD,Single-ply,1
74,M,Juniors,Shota Murakami,村上 翔太,1998,73,210,220,230,160,-170,-170,220,222.5,240,230,160,240,630,東洋大学,SBD,Single-ply,2
74,M,Juniors,,条裕,1995,73.85,215,225,235,155,-165,165,195,205,212.5,235,165,212.5,612.5,岡山大学ウヱイ卜卜レーニング部,SBD,Single-ply,3
83,M,Juniors,,八束 光司,1996,82.7,255,265,-267.5,140,-145,-145,235,255,-260,265,140,255,660,岡山大学ウェイ卜卜レーニング部,SBD,Single-ply,1
83,M,Juniors,Hiroshi Utsugi,宇津木 啓,1996,82.25,250,260,-265,165,172.5,180,205,217.5,-222.5,260,180,217.5,657.5,東洋大学,SBD,Single-ply,2
93,M,Juniors,,高島皓介,1997,89.1,245,255,265,150,157.5,162.5,215,225,230,265,162.5,230,657.5,育山学院大学,SBD,Single-ply,1
93,M,Juniors,,高原 颯人,1996,92.5,230,240,-250,150,160,-165,230,-240,-240,240,160,230,630,岡山大学ウェイ卜卜レ一ニング部,SBD,Single-ply,2
105,M,Juniors,,橋本 隆盛,1997,96.85,270,285,-300,-180,180,-212.5,230,-250,-250,285,180,230,695,岡山大学ウェイ卜卜レーニング部,SBD,Single-ply,1
120,M,Juniors,Kyohei Yokoyama,横山 恭平,1994,111.7,-240,240,255,230,-245.5,-245.5,220,240,-255,255,230,240,725,K’sGYM,SBD,Single-ply,1
