Name,BirthDate,Sex,Division,Equipment,WeightClassKg,BodyweightKg,Event,Best3SquatKg,Best3BenchKg,Best3DeadliftKg,TotalKg,Place
Stephanie Braz,,F,Open,Raw,67.5,64.41,B,,60,,60,1
Ashley Blankenship,,F,Open,Raw,56,53.07,D,,,100,100,1
Addyson Crader,,F,Pre-Teen,Raw,44,26.13,D,,,47.5,47.5,1
Hook Hill,,F,Masters 55-59,Raw,48,46.9,D,,,57.5,57.5,1
Hook Hill,,F,Open,Raw,48,46.9,D,,,57.5,57.5,1
Michelle Fredrick,,F,Masters 45-49,Raw,82.5,82.33,D,,,170,170,1
Michelle Fredrick,,F,Masters 45-49,Wraps,82.5,82.33,SBD,155,82.5,170,407.5,1
Kim Cryer,,F,Open,Wraps,60,58.42,SBD,117.5,60,122.5,300,1
Abby Howard,,F,Teenage 16-17,Wraps,67.5,67.22,SBD,120,67.5,162.5,350,1
Haleigh Brown,,F,Open,Wraps,67.5,67.31,SBD,75,42.5,90,207.5,1
Stephanie Cochran,,F,Teenage 13-15,Wraps,75,72.85,SBD,82.5,60,117.5,260,1
Heather Porter,,F,Masters 40-44,Wraps,82.5,79.29,SBD,192.5,107.5,200,500,1
Heather Porter,,F,Open,Wraps,82.5,79.29,SBD,192.5,107.5,200,500,1
Stephanie Kirk,,F,Open,Wraps,82.5,78.47,SBD,165,80,192.5,437.5,2
Jayme Ribar,1980-01-31,F,Open,Wraps,90,86.36,SBD,215,120,200,535,1
Jayme Ribar,1980-01-31,F,Submasters,Wraps,90,86.36,SBD,215,120,200,535,1
Dee Dee Cox,,F,Masters 45-49,Wraps,90+,110.86,SBD,145,77.5,147.5,370,1
Kathy Wilbanks,,F,Masters 55-59,Wraps,90+,141.97,SBD,92.5,60,115,267.5,1
Nataisha Ramirez,,F,Masters 45-49,Raw,110,109.77,SBD,140,97.5,185,422.5,1
Alissa Hobgood,,F,Masters 40-44,Raw,110,105.96,SBD,100,55,97.5,252.5,1
Ella Porter,,F,Teenage 13-15,Raw,44,44,SBD,77.5,37.5,100,215,1
Carolyn Girard,,F,Masters 40-44,Raw,67.5,64.14,SBD,102.5,77.5,130,310,1
Jennifer Cahall,,F,Open,Raw,82.5,80.56,SBD,137.5,75,155,367.5,1
June Knapp,,F,Masters 50-54,Raw,90,88.9,SBD,102.5,57.5,117.5,277.5,1
Lisa Baker #2,,F,Masters 50-54,Raw,60,59.87,SBD,72.5,42.5,97.5,212.5,1
Lori Bernhardt,,F,Masters 55-59,Raw,90+,114.94,SBD,100,70,117.5,287.5,1
Olivia Sheeks,,F,Open,Raw,67.5,67.13,SBD,132.5,70,145,347.5,1
Paula Wilson,,F,Masters 55-59,Raw,60,58.24,SBD,112.5,60,137.5,310,1
Alvinette McCleave,,F,Masters 60-64,Raw,60,59.87,BD,,37.5,92.5,130,1
Angeligue Eves-Forbes,,F,Masters 40-44,Raw,90+,119.66,BD,,97.5,172.5,270,1
Erik Heitter,,M,Masters 45-49,Raw,110,107.23,B,,182.5,,182.5,1
Erik Heitter,,M,Masters 45-49,Wraps,110,107.23,SBD,192.5,182.5,237.5,612.5,2
Erik Heitter,,M,Masters 45-49,Raw,110,107.23,BD,,182.5,237.5,420,1
Kenneth Evans,,M,Masters 45-49,Raw,90,88.54,B,,150,,150,1
Rusty North,,M,Masters 45-49,Raw,90,89.09,B,,125,,125,2
Rusty North,,M,Masters 45-49,Raw,90,89.09,D,,,210,210,1
Rusty North,,M,Masters 45-49,Wraps,90,89.09,SBD,227.5,125,210,562.5,1
Rusty North,,M,Masters 45-49,Raw,90,89.09,BD,,125,210,335,1
Rusty North,,M,Masters 45-49,Wraps,90,89.09,S,227.5,,,227.5,1
Henry Mincey,,M,Masters 50-54,Raw,140+,162.66,B,,227.5,,227.5,1
Henry Mincey,,M,Open,Raw,140+,162.66,B,,227.5,,227.5,1
Wade Matthews,,M,Masters 50-54,Raw,140,133.45,B,,232.5,,232.5,1
Alvin Belfield,,M,Masters 55-59,Raw,140,134.63,B,,192.5,,192.5,1
James Mann,,M,Masters 50-54,Raw,90,89.45,B,,137.5,,137.5,1
James Mann,,M,Open,Raw,90,89.45,B,,137.5,,137.5,1
James Mann,,M,Masters 50-54,Raw,90,89.45,D,,,215,215,1
James Mann,,M,Open,Raw,90,89.45,D,,,215,215,2
James Mann,,M,Masters 50-54,Raw,90,89.45,BD,,137.5,215,352.5,1
James Mann,,M,Open,Raw,90,89.45,BD,,137.5,215,352.5,1
Ken Hancock,,M,Masters 55-59,Raw,118,114.94,B,,127.5,,127.5,1
William VanSickle,,M,Masters 55-59,Raw,110,104.05,B,,120,,120,1
Leonard Bryson,,M,Grand-Masters,Raw,67.5,65.95,B,,72.5,,72.5,1
Boshko Stamenkovski,,M,Open,Raw,75,74.75,B,,140,,140,1
Aaron Williams,,M,Open,Raw,82.5,78.93,B,,142.5,,142.5,1
Daniel Duke,,M,Open,Raw,140,130,B,,255,,255,1
Chris LaRue,,M,Submasters,Raw,100,98.25,B,,222.5,,222.5,1
Kevin Cope,,M,Masters 40-44,Raw,56,55.16,D,,,172.5,172.5,1
Kevin Cope,,M,Open,Raw,56,55.16,D,,,172.5,172.5,1
Robert Burton,,M,Masters 45-49,Raw,125,123.74,D,,,160,160,1
Scott Jenkins,,M,Masters 50-54,Raw,110,106.37,D,,,227.5,227.5,1
Scott Jenkins,,M,Masters 50-54,Wraps,110,106.37,SBD,270,100,227.5,597.5,1
Scott Jenkins,,M,Masters 50-54,Wraps,110,106.37,S,270,,,270,1
Shawn Smith,,M,Masters 50-54,Raw,100,98.61,D,,,250,250,1
Robert Gorhan,,M,Masters 55-59,Raw,100,94.35,D,,,250,250,1
Mike Cross #1,,M,Masters 70-74,Raw,56,55.43,D,,,127.5,127.5,1
Mike Cross #1,,M,Open,Raw,56,55.43,D,,,127.5,127.5,2
Seth Blankenship,,M,Open,Raw,60,58.42,D,,,147.5,147.5,1
Robert Guernsey,,M,Open,Raw,67.5,66.68,D,,,200,200,1
Christopher Thompson,,M,Open,Raw,90,85.18,D,,,227.5,227.5,1
Brian Wimpy,,M,Open,Raw,125,124.74,D,,,272.5,272.5,1
Brian Wimpy,,M,Open,Wraps,125,124.74,SBD,262.5,155,272.5,690,1
Brian Wimpy,,M,Open,Wraps,125,124.74,S,262.5,,,262.5,1
Don Millrany,,M,Masters 40-44,Wraps,90,88.18,SBD,242.5,142.5,267.5,652.5,1
David Russell,,M,Masters 45-49,Wraps,82.5,81.19,SBD,250,155,215,620,1
Jimmy Johnson,,M,Masters 45-49,Wraps,118,112.58,SBD,272.5,185,247.5,705,1
Joe Vayda,,M,Masters 45-49,Wraps,110,106.41,SBD,227.5,145,250,622.5,1
Lee Hands,,M,Masters 45-49,Wraps,90,88.63,SBD,170,142.5,205,517.5,2
Lee Hands,,M,Police and Fire,Wraps,90,88.63,SBD,170,142.5,205,517.5,1
Bill Gifford,,M,Masters 50-54,Wraps,75,74.3,SBD,232.5,147.5,260,640,1
Bill Gifford,,M,Open,Wraps,75,74.3,SBD,232.5,147.5,260,640,1
Brandon Davis,,M,Open,Wraps,82.5,82.19,SBD,282.5,160,267.5,710,1
Daniel Teichmiller,,M,Open,Wraps,90,86,SBD,185,110,200,495,1
Dan Spencer,,M,Open,Wraps,100,97.07,SBD,247.5,202.5,250,700,2
Joshua Dusz,,M,Open,Wraps,110,109.23,SBD,262.5,160,292.5,715,2
Joshua Dusz,,M,Submasters,Wraps,110,109.23,SBD,262.5,160,292.5,715,1
Tony Shuler,,M,Open,Wraps,110,109.86,SBD,352.5,157.5,317.5,827.5,1
Joe Ramsey,,M,Open,Wraps,118,117.57,SBD,290,197.5,307.5,795,2
Tyler Cummings,,M,Open,Wraps,118,117.48,SBD,340,230,312.5,882.5,1
Stanley Thompson,,M,Open,Wraps,140,131.81,SBD,300,185,287.5,772.5,1
Ben Matthews,,M,Submasters,Wraps,118,114.85,SBD,287.5,195,307.5,790,1
Joey Joyce,,M,Submasters,Wraps,100,97.43,SBD,182.5,130,205,517.5,1
Timothy Shea,,M,Submasters,Wraps,140,133.81,SBD,295,205,285,785,1
Michael Knapp,,M,Submasters,Wraps,67.5,66.32,SBD,112.5,107.5,157.5,377.5,1
Kent Johnson,,M,Masters 50-54,Raw,75,74.3,B,,100,,100,1
Brantly Smith,,M,Teenage 13-15,Wraps,60,57.24,SBD,70,37.5,82.5,190,1
Andrew Brola,,M,Teenage 16-17,Raw,75,73.75,SBD,185,120,205,510,1
Christian Usery,,M,Juniors,Raw,75,75,SBD,232.5,135,237.5,605,1
Cole Everett,,M,Teenage 18-19,Raw,82.5,76.57,SBD,160,100,227.5,487.5,1
Dennis Vega,,M,Juniors,Raw,82.5,81.37,SBD,170,110,185,465,1
Edgar Jimenez,,M,Open,Raw,82.5,78.56,SBD,185,107.5,215,507.5,1
Zachary Woods,,M,Submasters,Raw,82.5,77.56,SBD,185,127.5,200,512.5,1
Preston Bernhardt,,M,Masters 60-64,Raw,90,87,SBD,132.5,100,182.5,415,1
Jared Trust,,M,Open,Raw,90,89.45,SBD,237.5,175,285,697.5,1
Travis Conklin,,M,Open,Raw,90,87.36,SBD,237.5,177.5,227.5,642.5,2
Albert Jones,,M,Submasters,Raw,90,89.45,SBD,245,185,277.5,707.5,1
Brandon Slaven,,M,Open,Raw,100,98.52,SBD,247.5,160,267.5,675,1
Preston Shirley,,M,Masters 40-44,Raw,110,102.06,SBD,200,157.5,205,562.5,1
Andrew Sullens,,M,Open,Raw,110,102.42,SBD,217.5,172.5,220,610,1
Garrett Anderson,,M,Masters 45-49,Raw,125,124.28,SBD,235,182.5,265,682.5,1
Garrett Anderson,,M,Police and Fire,Raw,125,124.28,SBD,235,182.5,265,682.5,1
Justin Kealhofer,,M,Open,Raw,140+,177.45,SBD,380,237.5,355,972.5,1
Brandon Lewter,,M,Masters 40-44,Raw,100,95.62,BD,,102.5,185,287.5,2
Eric Chaney,,M,Masters 40-44,Raw,100,96.25,BD,,165,262.5,427.5,1
Jim Gorrell,,M,Masters 45-49,Multi-ply,90,85.73,SBD,347.5,212.5,305,865,1
Jim Gorrell,,M,Open,Multi-ply,90,85.73,SBD,347.5,212.5,305,865,1
Frank Phillips,,M,Masters 50-54,Multi-ply,110,108.77,SBD,332.5,215,272.5,820,1
Frank Phillips,,M,Open,Multi-ply,110,108.77,SBD,332.5,215,272.5,820,1
Rehana Maniar,,F,Masters 40-44,Multi-ply,75,74.84,SBD,215,120,197.5,532.5,1
Rehana Maniar,,F,Open,Multi-ply,75,74.84,SBD,215,120,197.5,532.5,1
Jennifer Livingston,,F,Masters 40-44,Multi-ply,75,72.12,SBD,165,90,150,405,2
Evan Lovain,,M,Teenage 13-15,Multi-ply,110,106.41,SBD,185,105,217.5,507.5,1
Michael Cantrell,,M,Masters 65-69,Multi-ply,110,101.79,SBD,175,127.5,160,462.5,1
Robbie Fox,,M,Open,Wraps,100,99.06,SBD,292.5,170,262.5,725,1
Brandon McKee,,M,Open,Single-ply,110,109.32,SBD,320,227.5,292.5,840,1
Gary Boatright,,M,Masters 45-49,Single-ply,82.5,81.56,SBD,272.5,185,207.5,665,1
Ethan Borton,,M,Teenage 18-19,Single-ply,100,97.7,SBD,257.5,137.5,225,620,1
Jimmy Bishop,,M,Masters 70-74,Single-ply,100,94.98,SBD,200,110,162.5,472.5,1
Trevor Miller,,M,Teenage 13-15,Single-ply,75,70.76,SBD,150,70,130,350,1
Finley O'Neal,,F,Teenage 16-17,Single-ply,90,90,SBD,187.5,85,125,397.5,1
Saul Harrell,,M,Open,Multi-ply,118,117.93,B,,252.5,,252.5,2
Matthew Market,,M,Juniors,Multi-ply,100,94.62,B,,182.5,,182.5,1
Tom Greathouse,,M,Masters 50-54,Single-ply,100,99.16,B,,177.5,,177.5,1
Steve Phillips,,M,Masters 65-69,Multi-ply,110,108.23,B,,150,,150,2
Darin Cain,,M,Masters 50-54,Multi-ply,90,90,B,,125,,125,1
Mike Mantelle,,M,Open,Multi-ply,140,126.37,B,,162.5,,162.5,1
Tony Carlino,,M,Open,Multi-ply,118,117.71,B,,330,,330,1
Mike Bell,,M,Masters 45-49,Multi-ply,82.5,80.78,B,,192.5,,192.5,1
Ron Proctor,,M,Masters 65-69,Multi-ply,110,107.95,B,,155,,155,1
Brian Albert,,M,Masters 45-49,Single-ply,75,74.62,B,,192.5,,192.5,1
