Place,Division,Name,Team,BirthDate,BodyweightKg,Bench1Kg,Bench2Kg,Bench3Kg,Best3BenchKg,TotalKg,Equipment,Event,Sex,WeightClassKg
1,Masters 1,Marion Zeschau,Gewichtheberabt. VfB 48/64 Hüls e.,1970-06-01,57.92,47.5,52.5,55,55,55,Raw,B,F,63
1,Masters 2,Iris Kunkel,AC Siegen e.V.,1964-07-20,69.48,77.5,82.5,85,85,85,Raw,B,F,72
2,Masters 2,Angela Michels,KSV Fitnesskreis,1966-04-05,70.26,47.5,52.5,-55,52.5,52.5,Raw,B,F,72
1,Masters 3,Sabine Schütte-Albert,Powerlifting Duisburg e.V.,1959-09-18,62.84,40,42.5,45,45,45,Raw,B,F,63
1,Youth B,Frederik Köster,Athletik Club Bochum e.V.,2003-10-04,107.94,115,122.5,127.5,127.5,127.5,Raw,B,M,120
1,Youth A,Dominik Golin,KSV-Lippe-Bad-Salzuflen,2001-04-01,79.82,120,127.5,-132.5,127.5,127.5,Raw,B,M,83
1,Youth A,Konstantinos Samaras,KSV Fitnesskreis,2001-04-01,92,100,107.5,112.5,112.5,112.5,Raw,B,M,93
2,Youth A,Joshua Häger,KSV Bochum 1898 e.V.,2001-06-22,92.1,95,102.5,-107.5,102.5,102.5,Raw,B,M,93
1,Youth A,Benjamin Kohlhase,KSV Essen 1888 e.V.,2002-04-15,94.68,65,70,-80,70,70,Raw,B,M,105
1,Open,Tobias Haas,KSV Bochum 1898 e.V.,1994-05-19,64.7,120,125,127.5,127.5,127.5,Raw,B,M,66
1,Open,Niko Kyriakidis,KSV Fitnesskreis,1990-06-29,73.96,150,155,157.5,157.5,157.5,Raw,B,M,74
2,Open,Marcello Mameli,KSV Fitnesskreis,1990-02-06,70.68,110,117.5,120,120,120,Raw,B,M,74
3,Open,Onur Fakiroglu,KSV-Lippe-Bad-Salzuflen,1988-08-29,72.4,70,80,,80,80,Raw,B,M,74
1,Open,Hauke Heß,KSV Fitnesskreis,1994-04-05,82.86,160,167.5,170,170,170,Raw,B,M,83
2,Open,Marc Blumenrath,Kraftsport Colonia,1980-10-14,82.22,160,-170,-170,160,160,Raw,B,M,83
3,Open,Tahlo Jamal Kamal,KSV-Lippe-Bad-Salzuflen,1989-01-01,81.32,127.5,132.5,135,135,135,Raw,B,M,83
1,Open,Dominick Wrobel,KSV Bochum 1898 e.V.,1988-08-08,93,165,175,177.5,177.5,177.5,Raw,B,M,93
2,Open,Daniel Vancik,KSV Essen 1888 e.V.,1990-04-13,91.6,140,-150,-150,140,140,Raw,B,M,93
3,Open,Tobias Hertwig,KSV Essen 1888 e.V.,1994-11-05,89.8,-130,130,135,135,135,Raw,B,M,93
4,Open,Timo Gröning,Gewichtheberabt. VfB 48/64 Hüls e.,1991-01-27,90.74,135,-145,-145,135,135,Raw,B,M,93
1,Open,Sebastian Schaffarczyk,KSV Bochum 1898 e.V.,1984-07-19,104.56,155,165,170,170,170,Raw,B,M,105
2,Open,Johannes Scheidgen,VfL Duisburg Süd,1995-01-24,94.82,100,105,-112.5,105,105,Raw,B,M,105
1,Open,Markus Patschke,KSV Bochum 1898 e.V.,1988-07-16,118.72,200,212.5,-215,212.5,212.5,Raw,B,M,120
2,Open,Michael Berkovsky,KSV Bochum 1898 e.V.,1988-03-22,109.12,140,150,152.5,152.5,152.5,Raw,B,M,120
1,Masters 1,Christian Beckmann,AC Goliath 20 e.V. Mengede,1976-09-26,72.28,130,135,-140,135,135,Raw,B,M,74
1,Masters 1,Olaf Brandl,AC Siegen e.V.,1970-06-11,92.96,167.5,175,180.5,180.5,180.5,Raw,B,M,93
2,Masters 1,Thomas Frütel,KSV Bochum 1898 e.V.,1973-02-20,87.22,130,140,-145,140,140,Raw,B,M,93
1,Masters 1,Vitalij Bondarenko,TV Jahn Siegen,1973-06-24,102.88,157.5,-160,-160,157.5,157.5,Raw,B,M,105
2,Masters 1,Thomas Heidenreich,KSV-Lippe-Bad-Salzuflen,1970-09-30,95.46,140,150,-155,150,150,Raw,B,M,105
1,Masters 2,Frank Bahr,Kraftsport Colonia,1965-04-08,72.86,120,127.5,130,130,130,Raw,B,M,74
1,Masters 2,Jörg Kasparek,Gewichtheberabt. VfB 48/64 Hüls e.,1968-12-11,92.04,140,145,-150,145,145,Raw,B,M,93
1,Masters 2,Krystian Jusczyk,Gewichtheberabt. VfB 48/64 Hüls e.,1966-08-19,98.7,115,120,125,125,125,Raw,B,M,105
1,Masters 2,Manfred Köster,Athletik Club Bochum e.V.,1964-09-24,118.9,120,127.5,-132.5,127.5,127.5,Raw,B,M,120
1,Masters 2,Jürgen Rekittke,Powerlifting Duisburg e.V.,1969-02-11,161.9,162.5,180,,180,180,Raw,B,M,120+
1,Masters 3,Wilhelm Heckmann,TV Jahn Siegen,1951-10-17,92.46,-87.5,87.5,-92.5,87.5,87.5,Raw,B,M,93
1,Masters 3,Jörg Pollmann,Body-Aktiv-Oberhausen,1959-01-22,110.6,150,160,165,165,165,Raw,B,M,120
1,Masters 4,Hartmut Rath,KSV Essen 1888 e.V.,1945-08-21,81.66,110,115,120,120,120,Raw,B,M,83
2,Masters 4,Werner Pasternak,Gewichtheberabt. VfB 48/64 Hüls e.,1942-10-01,81.54,105,-110,-110,105,105,Raw,B,M,83
1,Masters 4,Kazimierz Michael Forys,Kraftsport Colonia,1945-08-03,91.48,130,-138,-138,130,130,Raw,B,M,93
1,Open,Marcel Vitz,KSV Essen 1888 e.V.,1992-03-19,104.36,230,235,240,240,240,Single-ply,B,M,105
2,Open,Maik Müller,KSV Essen 1888 e.V.,1980-07-17,93.84,162.5,170,-175,170,170,Single-ply,B,M,105
1,Open,Malte Fleissner,AC Siegen e.V.,1989-12-18,108.18,-245,-245,245,245,245,Single-ply,B,M,120
2,Open,Nick Werner,KSV Essen 1888 e.V.,1995-01-20,110.48,180,187.5,195,195,195,Single-ply,B,M,120
G,Open,Dustin Ihmann,AC Germania 1900 Aschaffenburg-,1994-01-21,135.04,245,-260,-260,245,245,Single-ply,B,M,120+
G,Open,Daniel Keil,KSV Mainz 08,1988-02-26,119.36,225,232.5,240,240,240,Single-ply,B,M,120
1,Masters 1,Jan Andreas Smolczyk,Powerlifting Duisburg e.V.,1970-07-12,81.98,125,130,152.5,152.5,152.5,Single-ply,B,M,83
1,Masters 1,Marc Hoffmann,KSV Essen 1888 e.V.,1979-01-01,118.18,210,-220,220,220,220,Single-ply,B,M,120
2,Masters 1,Christian Stoebke,VfL Duisburg Süd,1976-10-06,112.1,145,-160,-160,145,145,Single-ply,B,M,120
