Name,WeightClassKg,Division,AgeRange,Sex,Best3BenchKg,TotalKg,Event,Equipment,Place
L. Lash,,Open,,F,83.91,83.91,B,Single-ply,1
T. Cadiz,,Open,,F,58.97,58.97,B,Single-ply,2
S. Braun,,Open,,F,54.43,54.43,B,Single-ply,3
C. Zervic,,Teen,13-19,M,36.29,36.29,B,Single-ply,16
Jamie Moller,,Teen,13-19,M,181.44,181.44,B,Single-ply,1
T. Jacquin,,Teen,13-19,M,154.22,154.22,B,Single-ply,2
S. Tansey,,Teen,13-19,M,142.88,142.88,B,Single-ply,4
T. Hernandez,,Teen,13-19,M,104.33,104.33,B,Single-ply,8
D. Kaesbauer,,Teen,13-19,M,142.88,142.88,B,Single-ply,5
R. Rihani,,Teen,13-19,M,147.42,147.42,B,Single-ply,3
V. Gonzales,,Teen,13-19,M,90.72,90.72,B,Single-ply,12
J. Wojtal,,Teen,13-19,M,124.74,124.74,B,Single-ply,6
R. Tapia,,Teen,13-19,M,120.2,120.2,B,Single-ply,7
C. Hoffman,,Teen,13-19,M,92.99,92.99,B,Single-ply,11
T. Marsala,,Teen,13-19,M,99.79,99.79,B,Single-ply,9
J. Mihas,,Teen,13-19,M,99.79,99.79,B,Single-ply,10
K. Morales,,Teen,13-19,M,79.38,79.38,B,Single-ply,14
M. Badillo,,Teen,13-19,M,68.04,68.04,B,Single-ply,15
M. Christensen,,Teen,13-19,M,86.18,86.18,B,Single-ply,13
Angelo Cruz,52,Open,,M,136.08,136.08,B,Single-ply,1
F. Boquin,56,Open,,M,111.13,111.13,B,Single-ply,1
V. Gonzales,56,Open,,M,90.72,90.72,B,Single-ply,2
R. Colen,60,Open,,M,108.86,108.86,B,Single-ply,1
F. Belcastro,60,Open,,M,104.33,104.33,B,Single-ply,2
T. Hernandez,60,Open,,M,104.33,104.33,B,Single-ply,3
M. Badillo,60,Open,,M,68.04,68.04,B,Single-ply,4
B. Anderson,67.5,Open,,M,156.49,156.49,B,Single-ply,1
T. Marquez,67.5,Open,,M,142.88,142.88,B,Single-ply,2
F. Ardito,67.5,Open,,M,111.13,111.13,B,Single-ply,3
K. Morales,67.5,Open,,M,79.38,79.38,B,Single-ply,4
T. Sweank,67.5,Open,,M,77.11,77.11,B,Single-ply,5
Joe Gaffin,75,Open,,M,181.44,181.44,B,Single-ply,1
S. Nowack,75,Open,,M,154.22,154.22,B,Single-ply,2
K. Hedrichj,75,Open,,M,142.88,142.88,B,Single-ply,3
N. DeLuca,75,Open,,M,136.08,136.08,B,Single-ply,4
S. Smason,75,Open,,M,131.54,131.54,B,Single-ply,5
D. Rosenburg,75,Open,,M,120.2,120.2,B,Single-ply,6
W. Evans,75,Open,,M,120.2,120.2,B,Single-ply,7
V. Fertitta,75,Open,,M,117.93,117.93,B,Single-ply,8
J. Le,75,Open,,M,111.13,111.13,B,Single-ply,9
H. Pligge,75,Open,,M,111.13,111.13,B,Single-ply,10
R. Pligge,75,Open,,M,106.59,106.59,B,Single-ply,11
M. Christensen,75,Open,,M,86.18,86.18,B,Single-ply,12
Robert Belcastro,82.5,Open,,M,188.24,188.24,B,Single-ply,1
D. Brady,82.5,Open,,M,176.9,176.9,B,Single-ply,2
M. Evans,82.5,Open,,M,176.9,176.9,B,Single-ply,3
C. Brown #6,82.5,Open,,M,163.29,163.29,B,Single-ply,4
M. Bamonti,82.5,Open,,M,158.76,158.76,B,Single-ply,5
B. Masuoka,82.5,Open,,M,147.42,147.42,B,Single-ply,6
D. Dunne,82.5,Open,,M,145.15,145.15,B,Single-ply,7
F. Edson,82.5,Open,,M,145.15,145.15,B,Single-ply,8
C. Cohen,82.5,Open,,M,131.54,131.54,B,Single-ply,9
J. Kopecky,82.5,Open,,M,131.54,131.54,B,Single-ply,10
G. Abraham,82.5,Open,,M,92.99,92.99,B,Single-ply,11
Paul Wolf,90,Open,,M,176.9,176.9,B,Single-ply,1
M. Leopold,90,Open,,M,172.37,172.37,B,Single-ply,2
R. Mirabal,90,Open,,M,167.83,167.83,B,Single-ply,3
F. Weissmuller,90,Open,,M,163.29,163.29,B,Single-ply,4
M. Capriotte,90,Open,,M,161.03,161.03,B,Single-ply,5
J. Aver,90,Open,,M,161.03,161.03,B,Single-ply,6
T. Wildner,90,Open,,M,158.76,158.76,B,Single-ply,7
L. Chapman,90,Open,,M,149.69,149.69,B,Single-ply,8
G. Anderson,90,Open,,M,142.88,142.88,B,Single-ply,9
M. Klinsky,90,Open,,M,131.54,131.54,B,Single-ply,10
R. Tapia,90,Open,,M,120.2,120.2,B,Single-ply,11
D. Labunski,90,Open,,M,108.86,108.86,B,Single-ply,12
Mike Foggia,100,Open,,M,199.58,199.58,B,Single-ply,1
M. Platt,100,Open,,M,199.58,199.58,B,Single-ply,2
R. Haynes,100,Open,,M,181.44,181.44,B,Single-ply,3
P. Kletz,100,Open,,M,156.49,156.49,B,Single-ply,4
A. Ortiz,100,Open,,M,149.69,149.69,B,Single-ply,5
R. Rihani,100,Open,,M,147.42,147.42,B,Single-ply,6
L. Roseland,100,Open,,M,142.88,142.88,B,Single-ply,7
D. Kaesbauer,100,Open,,M,142.88,142.88,B,Single-ply,8
M. Nichols,100,Open,,M,136.08,136.08,B,Single-ply,9
M. Seagroves,100,Open,,M,127.01,127.01,B,Single-ply,10
S. Groth,110,Open,,M,199.58,199.58,B,Single-ply,1
R. Cox,110,Open,,M,197.31,197.31,B,Single-ply,2
K. Morse,110,Open,,M,174.63,174.63,B,Single-ply,3
Mike Collet,110,Open,,M,161.03,161.03,B,Single-ply,4
S. Ellis,125,Open,,M,217.72,217.72,B,Single-ply,1
B. Bacon,125,Open,,M,163.29,163.29,B,Single-ply,2
R. Stefanski,125,Open,,M,145.15,145.15,B,Single-ply,3
P. Calcagno,125+,Open,,M,192.78,192.78,B,Single-ply,1
John Magee,125+,Open,,M,190.51,190.51,B,Single-ply,2
David Oyler,125+,Open,,M,167.83,167.83,B,Single-ply,3
R. Flores,75,Masters,40-999,M,122.47,122.47,B,Single-ply,1
J. Feig,75,Masters,40-999,M,106.59,106.59,B,Single-ply,2
F. Weissmuller,90,Masters,40-999,M,163.29,163.29,B,Single-ply,1
A. Virta,90,Masters,40-999,M,99.79,99.79,B,Single-ply,2
E. Davis,100,Masters,40-999,M,131.54,131.54,B,Single-ply,1
Mike Collet,110,Masters,40-999,M,161.03,161.03,B,Single-ply,1
R. Stefanski,125,Masters,40-999,M,145.15,145.15,B,Single-ply,1
P. Calcagno,125+,Masters,40-999,M,192.78,192.78,B,Single-ply,1
John Magee,125+,Masters,40-999,M,190.51,190.51,B,Single-ply,2
